{
  "prepare_queue": {
    "installed": [],
    "uninstalled": []
  },
  "config_munge": {
    "files": {}
  },
  "installed_plugins": {
    "cordova-plugin-advanced-http": {
      "PACKAGE_NAME": "io.smartapprovalsiOS.com"
    },
    "cordova-plugin-device": {
      "PACKAGE_NAME": "io.smartapprovalsiOS.com"
    },
    "cordova-plugin-ionic": {
      "APP_ID": "e3a06060",
      "CHANNEL_NAME": "Master",
      "UPDATE_API": "https://api.ionicjs.com",
      "UPDATE_METHOD": "background",
      "MAX_STORE": "2",
      "MIN_BACKGROUND_DURATION": "30",
      "PACKAGE_NAME": "io.smartapprovalsiOS.com"
    },
    "cordova-plugin-ionic-keyboard": {
      "PACKAGE_NAME": "io.smartapprovalsiOS.com"
    },
    "cordova-plugin-ionic-webview": {
      "PACKAGE_NAME": "io.smartapprovalsiOS.com"
    },
    "cordova-plugin-splashscreen": {
      "PACKAGE_NAME": "io.smartapprovalsiOS.com"
    },
    "cordova-plugin-statusbar": {
      "PACKAGE_NAME": "io.smartapprovalsiOS.com"
    },
    "cordova-plugin-whitelist": {
      "PACKAGE_NAME": "io.smartapprovalsiOS.com"
    },
    "cordova-plugin-file-opener2": {
      "PACKAGE_NAME": "io.smartapprovalsiOS.com"
    },
    "cordova-plugin-file": {
      "PACKAGE_NAME": "io.smartapprovalsiOS.com"
    },
    "cordova-plugin-document-viewer": {
      "PACKAGE_NAME": "io.smartapprovalsiOS.com"
    },
    "com-sarriaroman-photoviewer": {
      "PACKAGE_NAME": "io.smartapprovalsiOS.com"
    }
  },
  "dependent_plugins": {
    "cordova-plugin-file-transfer": {
      "PACKAGE_NAME": "io.smartapprovalsiOS.com"
    }
  }
}