[
  {
    "href": ".DS_Store",
    "size": 10244,
    "integrity": "sha256-dnlAn1q2fpyBR/ffd/Fj3Ezzlr4irjJzumFXIprUOjI= sha384-uI9nynYhenH/gIIyB6BrXD6pIiFNAXRFnCXqMbLmY9bdB+ljWrJlOrTZsWgSAEoY sha512-rFuho6vmJm6MtM1+1oFPzjW96LLBJNq53pVrvqOBlfWatsmLmSjdV8t48/CXmIxXceZoj7o/vhSYxy6J/3mdnA=="
  },
  {
    "href": "backup.js",
    "size": 205600,
    "integrity": "sha256-xMmNcA8KvcPt/iahjklUTWOE8X5Jcm/lZ5Z/w+4qHRk= sha384-WWWQlv1FzHzhdA41IHAWrpHSLaSkmHUV+uCFysHYLdIaUawaZLe9jnNB9iKlD3V0 sha512-JGCptYo9WVYJbjgk/PUBcXMcPP9Y2T/bmKiOeMhsy5BCOxI8GDO1w4qdI55OWcUme+YlrWX33ViWcV6cjAFhIg=="
  },
  {
    "href": "index.html",
    "size": 1958,
    "integrity": "sha256-41A87FdaNyWJmB44P/Ni4brTETWeBJg5OeieFcJ3YIY= sha384-vY4ypF2ZQ2MGTeNKSKhd1P2eRBp2bjE1nJzttrvYYfZTgF2F7c4Unb8LY34AMtiw sha512-DjVgWZ5HrqROlu8gunfTTtcSe5vwK2E7aPjJMhhBMscT7WAs3zE+6Kuf7fEMjXlKNSk5j5XiaD3raPYvVzMyEA=="
  },
  {
    "href": "manifest.json",
    "size": 266,
    "integrity": "sha256-bhy0OvcYM5NzmPBTU92oxj81eQtM3+z12l08DTKg4bs= sha384-pPGU+RMCOm+U8IeiGRzeZkF0nfhx0UqGQ2cOcZtQkS6FqriiZJNWUFPi2V0rhEyI sha512-tYkeLfI1qWTTOfnukpkdK0aKNYae3QxQ0VGyBjgmTPfhmI3w60dMdoUEhd92vW2mh3n8tUi1Nq6/8VvdCXUIvg=="
  },
  {
    "href": "service-worker.js",
    "size": 741,
    "integrity": "sha256-Ff13uE6xa+xl1JOlfZHPZiEDaBCLGCtrf/cPBcLkJoQ= sha384-K1/gDZOPtgFOrdA5rfTJVSs8+yxftYJVNYeQcenB9vvGpwUxN5f3YuoF+jzyr+i0 sha512-lAUQOTcMPuZv+8EWKrUnwrFXSCU9vlLyq0PQjU83REWJSs466PjdIRK1qZoPwV3bYHvC1PlE53tMSSwVpO0mFw=="
  },
  {
    "href": "assets/.DS_Store",
    "size": 6148,
    "integrity": "sha256-7PaLNrAOu7Hvo5HOB+RLaSRqcb9BmUPQzMPWZ6MC4Ps= sha384-hmDHkg/leryyJSCso+qg57Hy8YoPyg/xzx2jr/roqLEkipTDFcnrdYrKdH3/MU7q sha512-+JZSVpz8lLXQy7o+5lOA6ScXmz8WGHfbEVwRrtRrOZzUZctqlv2sS7a88gJOI/qFZ6lnpTT7Z7vrTqBVuIosDQ=="
  },
  {
    "href": "build/0.js",
    "size": 29392,
    "integrity": "sha256-T35ztjjMARTAn8pa6O5ULtOHlVEV9tLZwVBH35GlI/w= sha384-aEJusp1OVqwT9G30eR/gAyYIFrl8GylxmE5IA7GWoN+Fx3L/vNz2sYWfsIe61u9D sha512-5sKceEXzPpKsBxmtdwfEj6Gbtyv3oLSwNc59VD2647JqCfS9JdDVMKMAezL2Gvns02eWMxKqXpUi5GEWi8qJwA=="
  },
  {
    "href": "build/0.js.map",
    "size": 30295,
    "integrity": "sha256-Bf8x/vmBpPmKKxLoz7Bd2OXZ9K7kXvbiXYGGfleSFR4= sha384-wNkvoeaEX062R7Ks3tNqm0sNVa6g55iLPY/HllIb0q1B+r3WFBo5rbUcwQ8eWs6N sha512-UjLLmspxRdPAdPrMlDbU4XCHgoAgHgUNXFoH+f61UtmqL84phPza/YG8zHm2yaCSmPbc9P/dHRhYGrMNq56y0A=="
  },
  {
    "href": "build/1.js",
    "size": 38940,
    "integrity": "sha256-ro/wgyECBUsjiuXNQN5oSWcNpiKlWCMqeH/CsaFx4DI= sha384-JjnA3Fd2qDznpqfaENBGKibDXJrd8rr8S5C/hS1kQN1g3xgBdl8x14RF/C7O0fcc sha512-nkSXLyxABUR2NwyqjZr5w3MBktvIYQzIOWlRloT0IBo22TpvWHV5748ilDs87mkkYc0IyE53ivtXEVpEsluwCA=="
  },
  {
    "href": "build/1.js.map",
    "size": 41474,
    "integrity": "sha256-CeSA6Jb+1eNST63U9uT2NHbe43gtrhYYIUbO8tfQ+bM= sha384-kdSR7HRLrNx0yijJUHTsW4PTLW0lAadWjO3tl+4Q7kGpOWEdUnxbDfyhQE9iYEc3 sha512-Yt/2WPTcFcdE7UjUux55ISVEHuk3TQTHZEzKs5PiuxaDc0Xh37Uz2PNG8iWmk66FHwEYytOMRNbif8pepxgLnA=="
  },
  {
    "href": "build/2.js",
    "size": 36701,
    "integrity": "sha256-lm7xXABwq8Q6jLF9o2sJw921kMiHSbHKm5MIogJStrs= sha384-gwBpZKH5c/lO4nYm6/bu/MOkrwXZkkcMfUhjVRLfIIF4ydfXMwkQ8Oq63gsRj6gH sha512-xEbnT8cs2J/6DKPVXU+G+1uXNHb70DXIFXo+IO18+JrrRsTFWur1LQpLabXVeOETvUngy/tlwZ1cmXgbbZP+HQ=="
  },
  {
    "href": "build/2.js.map",
    "size": 37030,
    "integrity": "sha256-PEGD5R3EC7XYvCbK/bp7ZjRJVtWqRIcNmpHEPFcf+WQ= sha384-7YAlT0DP/mDKza2EXXA2oQMDQ2YXZruuFKv3A6ohVaEi/tI3dqxBSpVgBMj/lKsA sha512-zS4i5NAhiAcinEtM37nvIFRHwkGuR2bP42porCwipRxeQcv/IDady97TZJib77Jc7v3kvEu3w5S8+u+ByyzWnQ=="
  },
  {
    "href": "build/3.js",
    "size": 13075,
    "integrity": "sha256-dPmpf0OO8ZhSc1GXNsjZw0jaH3/avRzHprNSr3ADsD0= sha384-txZ8NUUuw4eSBmum29AOqs93HBWruBqPPOA4+ysUcS2ayEuSwK4AXqp3bAAY6s9H sha512-IimDc3H+jPc+thDRpxejeIDYQImFSkVxRJqXU5HO5mU8WmS6Gzqeg6NFb0MK+hsswJPyfhhFhylz5fjakhq/2Q=="
  },
  {
    "href": "build/3.js.map",
    "size": 11620,
    "integrity": "sha256-kz22SscF+4jnX1O2TEBGGcIL/8yQ0okW0Bs6xFn09Po= sha384-4umD2AxdkF6+UYTH/jWQCU7CQ2f/TRfnkMCL03tvTCWh97ozAO9pHNvq6U6HCezA sha512-XsD/lh0Ip4yYPmaIJR48/nKY2IYmt4I5kAla9ymq9AdmgkqILRFNt0ElIFjKPskKdqfj5I81kGzagGQ4FbLEEg=="
  },
  {
    "href": "build/4.js",
    "size": 21684,
    "integrity": "sha256-k917JKK65WvgbC9klEgPkSZVp3GywPWNq58eUJHnnZs= sha384-p88/19jGqbMEw8FGGgksAnTt1BUCuLU/KwmtIYTMChTgYGfxIGTLmseN0YXX2SD9 sha512-lCMxgOVlz27R2K5ZFggilFJGM6du16Owg9aIBG5WYGT7rRY1daEQCHaDImo1OKZfbrcRIOFvdaTZoaO/AtrdWw=="
  },
  {
    "href": "build/4.js.map",
    "size": 21444,
    "integrity": "sha256-X4XvXhP8F17KD9QFl2L6TOfpHPq4Ph5nxjPUYkVwrz8= sha384-KKw7MUAeI8s+uWYGBfFUPrfeFdGYxUG15LGkBjOtJJKKm1GZR67EIrV35u/iiXsZ sha512-BqoABIca/UDVYn0KZz/CM/NEL831XlC4ROxYlxf9uf6vO/5F9NhzVIVbas+fZgnC6Zr83FJOWjscu7LHeun0CA=="
  },
  {
    "href": "build/5.js",
    "size": 16614,
    "integrity": "sha256-rgMHHN1Jz48fxS9dLNQ53/eT9sByP8ntv64PW/VD/ts= sha384-h0EMsCujOB+kxYJYfpl2n6qs8YghrVebqSXx87yjd3+eCbK7YyGmlvlwTEhpv6Az sha512-TYfpYk8375JOcOuaGCuf0WPKH0RiJQXvNO+k5+stzxMj5w2p18DK+RAP02J8P0SQFMQCV+PnqWi4QWwGjt/APA=="
  },
  {
    "href": "build/5.js.map",
    "size": 17085,
    "integrity": "sha256-kum3OjTyn5imSgZS3L0yoBANYlgdIa6+zKlOSMPqPyI= sha384-gnSsMu/0jVYuaD+alzigzsIENwZwwLP86c9fGlkOxEdDVmWjiT1aza1WDbHeHw+c sha512-ikgXVV3+DGlH9iLoJfhtjfw8fFFDrZt9c3JfDWrPsrgUuOcXOQZM7Pez6HNBCz8wHk2jfykwSPOUAP39fxFAeg=="
  },
  {
    "href": "build/6.js",
    "size": 24576,
    "integrity": "sha256-MPhGvk1dIaqbGAMA4T7Q+BfX6+1lbSeIJBcpjTXUEIU= sha384-TdOzcDUr6ovP0sbWGRcqpki3fOAe5kZ0zXrh7/IDUR3X9wwK2ed/bIg9ldeY90HW sha512-mtKMtjB9UnXMKgHJG0NWSW7bx6B7ko18LL8iFv0aeAVeWy4uOsqJYuzY/q5As8amOgyVecNtdc6O8tTwh/tKAg=="
  },
  {
    "href": "build/6.js.map",
    "size": 29887,
    "integrity": "sha256-hxcY6BDsNOnRZe9Mqd8MlmcCm/LIFhLgK0scC7ACUDc= sha384-59DraAioq7Dgz0ZtEWCjoywfzPwdZkGam3zWHkwNoi+foCvua3ODUjrZwvIYK6vI sha512-8/SV2/wKSJm6EPghN+9bX8XmWzcH6dN3wrBl7pfHVaTlxBCaW7i/XWnQbB5sGAbHTPMpK7JaiZrlqPNRuDapog=="
  },
  {
    "href": "build/7.js",
    "size": 21541,
    "integrity": "sha256-AGBUfqhYIqShXTKy4LKNTHb6pKdBUKBIe+ZmOt0GFfs= sha384-GvoeVQS+p1IDnrXaZsPQMZk8z1aoZnpk/NcUy0aubxitWtQvEG9Ts2nELvvVa5i+ sha512-8/vCpl1QIjmxapnD1LoSn4VUb0ltLFvrcAzPwu2s3DqJZ6GYL4ZYXur2qLh5nwpzMzOTQ6tL6oPwlEeBnE+now=="
  },
  {
    "href": "build/7.js.map",
    "size": 25734,
    "integrity": "sha256-VdOR4yk5lWX8vPUSKAXYAi2zHNjBYvTF5115W7Z0U+M= sha384-HGhMx521zG4u8X71kQTmHKi05rtfUlPjC5uqi/je1iyzWcmTQbAIgTgTbkti6+Ah sha512-A7ilIPbRafExq8xZ40bZUTges4s0qZqtEzq05N2cvyH/fTtQnBoI5bMokuJMcsip9oVWrRrcSnoLYi58eotmyQ=="
  },
  {
    "href": "build/main.css",
    "size": 829013,
    "integrity": "sha256-BmaF6vW+le3KlN8K3vlgb2iSA7MC3rhwWi3aPCZm5A0= sha384-tR4Z3eqT+pGbC8dCU+COBJPf+C+79VmMgUpObKB7WAh2DLt4IjFHdyG821Pa2be4 sha512-CR8c9lYcFRRKBoEes7WXrRP5bkc+QcodrSwwaLBzgGVkS5udZVuPNh1zRzisGHodyf9LXoxyJ2gPlzWvZClaBQ=="
  },
  {
    "href": "build/main.css.map",
    "size": 4,
    "integrity": "sha256-dCNOmK/nSY+12vHzasLXiswzlGT5UHA7jAGYkvmCuQs= sha384-2/zQBSoDBmSw1zkhy4XT3GswD0Uwley0VK45vZITLbeEStelMGn+cuO45m1aEDqj sha512-BPj/JoJgSGLkBb+I3hAu13EKxFwSBZV2JeTuPl9aIkHkU2FKzEUTRbkbr8iPOIBAGcdJJERZVnTpToz0vlOBfw=="
  },
  {
    "href": "build/main.js",
    "size": 48022,
    "integrity": "sha256-jbb4zqxbH18T3B71qMNDvDCa47Ix86n/C2Z6qAsTXsY= sha384-BUVCrO38pH6LihJ43vF8+r4bn4EGR1wgxSJRZW7RGrF0yC6UARKy9U3XOIujQMxA sha512-r/ZGB8cI6vGc4eriwAbxSR5o0hRhAU6xc8VwGv0ehyHxtXwjneFi+In8AhHb0/4H27dOSkIZsv+CiR/MwELy6A=="
  },
  {
    "href": "build/main.js.map",
    "size": 50253,
    "integrity": "sha256-JdI+cB7ERUv9wXqng60swc7Jl6gG6O424UJ69QsU/WA= sha384-cVylSzTkwOXAvORYrgi3Dk1ommwSteG4ksyE3eNv3Tm4ltCOWmVYfenifjkllnSi sha512-qb0Mxjcn0b2B2mq7l6N7bSTXHdvHxstohMGzmUCu47pooD479uJL2vomzn7iVs2iyQuK/JyBFHFyapeQMiE48Q=="
  },
  {
    "href": "build/polyfills.js",
    "size": 97180,
    "integrity": "sha256-iJtVqfaMPwsbQjwST0h2Y5kg0poXEJjU5C0SDUASkNc= sha384-TM2OiqZjzSU8haaeArOQ7aT9p3qxcHB7XhdzJyOgFdBMPAHe9dcEnl0I6flhFJBg sha512-tGN8YG0RJaptFv4OdyzFYZMGCGEjE4EqM4FW4gw409V8mvpXXUs/GiE7a2Unc0ttTX0C6/W3AkN6fC7lSQwLFw=="
  },
  {
    "href": "build/sw-toolbox.js",
    "size": 15793,
    "integrity": "sha256-hg19xBqGOjskPM73S8+yRFnwodqcHrx8sQJ1vWGZgt4= sha384-Vc5Ed2vjz5wwc6CBg69B9k3hlIG+mMBIroUMrKtC4Rmk3w7RHcgiOLNut62fXUJc sha512-MKB7jclAPCayGfpalQ4wS0WUzL6HRZmcGV9Kv1B1SpyNlVoVjfpEhCjtcty4mh+84L+GGzKGGNYvfrBX123BWw=="
  },
  {
    "href": "build/vendor.js",
    "size": 5432468,
    "integrity": "sha256-TB3dKfqcp6c86c/DW51RzO7l/koAC7RtUVAQ0c3vzgg= sha384-ZN0hsoF7sPYwhD3ZcOXPSUBUU+Rn/LKapaqCUsztU0wyA9cv7bhFa6cUYxGyyLOb sha512-aF4YqCXrcl5oMFNxIDMLxlfJQLkZpge7vawgI2RQPuHtjDATfcxgeQqxRS0o58KKpBaH1maIhfjZooqvBG25PA=="
  },
  {
    "href": "build/vendor.js.map",
    "size": 6421084,
    "integrity": "sha256-wtWGeUGjWOCD9qbB1H0wNKkQR7epQckBj0RYEeeS+ME= sha384-in7ejmqK1n0I3vQefHZevlMb6BvEUVGe7GVeqVryBWQ9JhsgbiGCPIQyWxCf9727 sha512-T5i7baZjgwgVHjqOWbw66SuBA/BnJJNCJKGkfFELvUc9sy7zQ87M+e9eFA5tBpVokmxv6rmDmiJk3r6o+QXzbw=="
  },
  {
    "href": "certificates/1dotcert.cer",
    "size": 1559,
    "integrity": "sha256-7AyLmQxKLLLeK9JMf7kz/ecazjQEj7RW4fDNnFttNr0= sha384-XQFWCFZc9+8cUgO/xS+PxsOj9s1F4RNQ9DO7iHVmC3YqXDwrIdfbGt2zpF1vgjia sha512-wTQcLZz6GvTnuuH5DYLAVZrhYxXWrUsbfZTTpiltMh1xxY4kX/WTMtlDw1/b3t2twqXdrdSe0Nv/6FgltE7j+w=="
  },
  {
    "href": "certificates/1dottestcert.cer",
    "size": 1559,
    "integrity": "sha256-7AyLmQxKLLLeK9JMf7kz/ecazjQEj7RW4fDNnFttNr0= sha384-XQFWCFZc9+8cUgO/xS+PxsOj9s1F4RNQ9DO7iHVmC3YqXDwrIdfbGt2zpF1vgjia sha512-wTQcLZz6GvTnuuH5DYLAVZrhYxXWrUsbfZTTpiltMh1xxY4kX/WTMtlDw1/b3t2twqXdrdSe0Nv/6FgltE7j+w=="
  },
  {
    "href": "certificates/Sterlite1dot.cer",
    "size": 1559,
    "integrity": "sha256-loA694RMa/BYLbyrvWQFL3QvhZ/+AHxxNBRlQ/6uiS0= sha384-v0byNgOc1WAYPr1JYhkNUFw+q84x7tBaUAEOGQj//VLc3L7WzPcxfqKpJ4ecox72 sha512-59uqJXOMyF4fZTS+c79QC7Uo3Hif02jfgqAUKxoMi8QqZ53O2XodWkFoUHUJcKfCdhzZv2uO6HX/bICgJOHCOw=="
  },
  {
    "href": "certificates/SterliteCert.cer",
    "size": 1560,
    "integrity": "sha256-2ZG0NLWH+HUlcjrQAcXgbaS9QY2LwqBtOwsPo9xMNzs= sha384-8gyWxK198imyE23w53nzPaN4/iHO0pnL6GKkPW2okCsH2WbriPLNgPB+GhHkEhjI sha512-38oB3V9SrrKpoeCm9RsONoVPLSCYBpLP0rEl9JVChXSJyraAxjhNKW/8r5deUahA2ep6XlsgN2Np4x8n5QAQaQ=="
  },
  {
    "href": "assets/certs/1dotcert.cer",
    "size": 1559,
    "integrity": "sha256-7AyLmQxKLLLeK9JMf7kz/ecazjQEj7RW4fDNnFttNr0= sha384-XQFWCFZc9+8cUgO/xS+PxsOj9s1F4RNQ9DO7iHVmC3YqXDwrIdfbGt2zpF1vgjia sha512-wTQcLZz6GvTnuuH5DYLAVZrhYxXWrUsbfZTTpiltMh1xxY4kX/WTMtlDw1/b3t2twqXdrdSe0Nv/6FgltE7j+w=="
  },
  {
    "href": "assets/certs/1dottestcert.cer",
    "size": 1559,
    "integrity": "sha256-7AyLmQxKLLLeK9JMf7kz/ecazjQEj7RW4fDNnFttNr0= sha384-XQFWCFZc9+8cUgO/xS+PxsOj9s1F4RNQ9DO7iHVmC3YqXDwrIdfbGt2zpF1vgjia sha512-wTQcLZz6GvTnuuH5DYLAVZrhYxXWrUsbfZTTpiltMh1xxY4kX/WTMtlDw1/b3t2twqXdrdSe0Nv/6FgltE7j+w=="
  },
  {
    "href": "assets/certs/SterliteCert.cer",
    "size": 1560,
    "integrity": "sha256-2ZG0NLWH+HUlcjrQAcXgbaS9QY2LwqBtOwsPo9xMNzs= sha384-8gyWxK198imyE23w53nzPaN4/iHO0pnL6GKkPW2okCsH2WbriPLNgPB+GhHkEhjI sha512-38oB3V9SrrKpoeCm9RsONoVPLSCYBpLP0rEl9JVChXSJyraAxjhNKW/8r5deUahA2ep6XlsgN2Np4x8n5QAQaQ=="
  },
  {
    "href": "assets/fonts/ionicons.eot",
    "size": 144114,
    "integrity": "sha256-UCCm2xLRKkF3WxWjC06X4mHs3PxBWf6QJZ/0fatue3U= sha384-ztSgyl8t1C0nqcFcqScKMgEsYF87x9ZP985yXqlxM1aQ6GluH0FUxGmW1elLKwcj sha512-zWHaNWYulRWqKIqjjE+vJfjFHtqbKWzravkprXFoSt6ruN3bk97qn2uvvOUL0h80+UwShe+tZcUQbbdjXTuN9g=="
  },
  {
    "href": "assets/fonts/ionicons.scss",
    "size": 1152,
    "integrity": "sha256-oDIvHxZ1NBbGc4w9BXRT2eKgRGLt/IEUZwGDavV+9eU= sha384-uoK0Lcp/3VCQZrxziUseYhM5mSFFbpqwyXoG+Gne7noHmGnW1xoAXtPrIcne9JAW sha512-sS+nBhm4BF8ukeTazVlbNy3TSP/+svCxchcyvwVJjYHkvOKVWD3J1Gq1gUYN5/8kz8e27wIzc+/uB5fxI2KfWA=="
  },
  {
    "href": "assets/fonts/ionicons.svg",
    "size": 400219,
    "integrity": "sha256-OI6Sh9QcIiJyxfZSV9fMjCZvvBWaDXL5MVEXBgR5uLQ= sha384-ZesfBoaKL+nodaPGTTpQ0f7JHp7IRJMOFfMzAV6DwsV4QMxYoe+m621ZV0l/miiH sha512-KGfdnuQz9Jh/EnfE67htQK6HcnHLxdHxtgsiYdPfhrtYUvLSwtSMC9X9VfB2EU+khu2gGayxF5YLny4oGApfkQ=="
  },
  {
    "href": "assets/fonts/ionicons.ttf",
    "size": 143936,
    "integrity": "sha256-u0dnmwuuuEgbf1HGitM65aUmc2y1CxcXzGD/a2X5CKM= sha384-s47L6mxk6rCeEGdQ4mM+thc4NjacHAzaFVCa0sMHK5oJhD3K8x4xV7Inp4cSkv4p sha512-8t1itsXdQ9WKWGkoyHc1AtuFFqavELMD3DuIkkxC1ck7k4Qsexbwcdp5Az6+p3oi2P4n+WLzDagfmoGeosmRGA=="
  },
  {
    "href": "assets/fonts/ionicons.woff",
    "size": 80356,
    "integrity": "sha256-PqiUEDS62tJfE1kdDv0VRo0ttO2NR9G/0a3J+Ywvz8w= sha384-QMDziiXkTOnd8cDrnoh/lAjpUYC411XSrom8Jkpt8RCF5KzofXnw/OBeRs//W0BB sha512-t15ly4Pga5mWkjTOd06lraibOVa5lJPmT3G8ALWypz68gUPLD6dwMjSGLHtzRcS9gdTB4IJx+ScNNPSGnI4ZOw=="
  },
  {
    "href": "assets/fonts/ionicons.woff2",
    "size": 61020,
    "integrity": "sha256-Ssxv++6sUheVFkf1V52MmVJsZ1f/hKcKT/HzL78XNIs= sha384-dxnao7xI6YcFP5sNczIT+uXLOhqRpduQjezP9Vfqpp6PqB3IixUe9sskidGAbPZY sha512-rUwDcYMvHTgjpQqnea3wGTrxeTYHY2h5b3Bm4auQMactAJtqAuFUTbg+VvfSXeCdy7shMGrz1KAGu6kl9j3q0A=="
  },
  {
    "href": "assets/fonts/noto-sans-bold.ttf",
    "size": 415132,
    "integrity": "sha256-aL3Veh4eYmY6CzcsciQgS4KomCC5zzA5Ezf2HwxecSM= sha384-aQIV0YyGTtfK9eToDGXiQ6c0F10maNoKDUmYo8r8/aVIpjOPlqi5e/oK7/Xb7OfS sha512-UMNE9uARCySoOOIeWqCdcQg+4gvws6NK8/psDZVlJUs00N8ZLDoyfH0FeObMKhdut4JOE6QVSMJtg/KAg01vhQ=="
  },
  {
    "href": "assets/fonts/noto-sans-bold.woff",
    "size": 211888,
    "integrity": "sha256-5dq+38Nh7sZF94nlpI8UIPJ0Z6z/9iBiaPliewE5k6s= sha384-xDzErN8hs9UPwhaBR1RG6ZAobaXtes/c4kcgf9aFJSRxIkOqpxVxezLwSdcn8DmZ sha512-Fx9vrmhU5ItMnOYrEYLXhzEryxhl0TV8BVbScdzLKOkBORZqjsN+pqncpDPfXer8scAbOYNoOEvCe578pZ8/TA=="
  },
  {
    "href": "assets/fonts/noto-sans-regular.ttf",
    "size": 414820,
    "integrity": "sha256-nptMU70lytnATTcPEzpeMtFm0NVOKprWy6SjH804LVs= sha384-/XUu3TR6H3BtT7jSEn8O1aQnmmHwbSoYjNT/53Vc6PeFNCWtmxdYmWn8dSms/6lq sha512-6qp0NSWDqDodmUKzn+JhV2UKMCtx77XkNVplWt0oXbUL7KlqdDN4Ulu3sIFhNf0QRyMKZ4hMSpHZGvWG8rtsAA=="
  },
  {
    "href": "assets/fonts/noto-sans-regular.woff",
    "size": 212780,
    "integrity": "sha256-7tvqsAYr2IYlLLLC0Ma9ubVDnK5XSV6KXc0yemIBtDo= sha384-vgq8/xOsaDEZVsTk8LKgk5gB0WiIgAk80KCJ/9DnaNVTWavE/colHEEqYgDbaag6 sha512-e2FZKIxovG0i6QlyLU12tIoM2t11NYedkHEGvGs0IAwjkEmETv7Zz91MkpWnjc8/gQYtyXgdN4AD/gOnFC/J7g=="
  },
  {
    "href": "assets/fonts/noto-sans.scss",
    "size": 1282,
    "integrity": "sha256-xARtZsjVXR2dqKai+q9tNa4zR1+3MvUqY3d9Oa/U+cg= sha384-RvV3QHVLbkECUKtk+5d5rukvctUfoA18wpo+aQZZ0h5od/xGNx1Salv73VdAFbiL sha512-UuSx9zuU/iAKLAOwDUvWazwQ5yT69MWRi9uxziolDedMvIoD005PYaNzojXEZV0KxTzi++dQqbxRdSkxuJ6qkw=="
  },
  {
    "href": "assets/fonts/roboto-bold.ttf",
    "size": 20040,
    "integrity": "sha256-u6/yfFrq8kN3N5UtznMEwFBTajdRjhnAKcuxRcEXgeY= sha384-6g5kSZ5gbyVHyNtLoysTgluWGy+NC/dtzuYqIjBvAvdJTfTUUb27f4Db8n8boH6T sha512-wmw3F1ShnvnEAL8h/dxdHlIFfRKseDaw41HUgSMT/3x3GOsnQw4Bz4y0hUhgAsj58F0Iw69eI9N+tCW1LpDDYQ=="
  },
  {
    "href": "assets/fonts/roboto-bold.woff",
    "size": 13348,
    "integrity": "sha256-VSk/KNoJlrr6GsOHcdUY1kh552xo+ZE+lfBysaPc/Rk= sha384-SQfaIPrBEraO+CY2eM9PG3iQYpMbZY43DvEcsNQzKpyKL5VOL7KB3uiXBOHCVsfy sha512-9k9Yfb6KdyH6vdZM+3NGaaCeAQJKfLke+OmGI473/m+kK9+sfr0FvLddtOM9SvTpHnjm2NhBElIVoRjfeQerFQ=="
  },
  {
    "href": "assets/fonts/roboto-bold.woff2",
    "size": 10212,
    "integrity": "sha256-N+AXlcHfnN1YN/V7/HVPr/JQuQnJGKD92NcaJuVTGZw= sha384-ry+OsSF3OA/TYGXkgv4WPBFdl3k7uDMJJaS2wKBLKvZ+TtQ8qfEbKyMvsnbFOJa5 sha512-RHKQWeEbjSpjnvxdudEHRoLVd/vl8qSJQAYgujXAAnU6xB3SwX2D//pwYHJjlNduVkX9H98i0rrLlvikqCS3Tw=="
  },
  {
    "href": "assets/fonts/roboto-light.ttf",
    "size": 19908,
    "integrity": "sha256-vQu17cA0j44Mrp9NdhZiC0uKPt3vl8mx2iShbZ3KXKI= sha384-xdhNNKFM/yiIwOU2ETyd3Pw/Ka+1LMS10OPg2Na7dqBwSug0f3xV1Tq8ug8TYY/8 sha512-6Em6LwUgorAZOiIMi8UEL2VaXq1uRdUEHhEoSW4ZsexejX/1iMdsZpzlN/41Uxvjllbwn/YYw0uzciBM+VXP5A=="
  },
  {
    "href": "assets/fonts/roboto-light.woff",
    "size": 13360,
    "integrity": "sha256-T+lFQzetapjXsOAFi/txfUIR9/YlPVjMaDkB4DSXUXQ= sha384-j9VxokPsii1w9Wda6D9tznnY9aWxZoblGkTA0KbSHaJ4d7w86AYWT5pvoWylr2Ab sha512-H5Vp6LKsJl5Z8HExYdwIxTPd0LQq9hYFDD3Jf+hzW373wbyK1gLKU50jSOlL5X2q+3sCdo4uKAPldQJZGAdUvg=="
  },
  {
    "href": "assets/fonts/roboto-light.woff2",
    "size": 10220,
    "integrity": "sha256-ViaMUoz5MCSdUZyHaz6kaL5XqCaRDf3ug+JNPg7X0bs= sha384-YVDyRSjFOD5bQ0JhNunHZnXitgO45qneI3CP55XxEUC+uAgkMSkXsgWknN8x812Z sha512-57HVrPvGRqD7UMTt13UNzkjQa9k+kMBytbcUjM0kLMqRt5e7KRIZYZWUpIn00jrhsjxsKEHToWTOR7dcDeVTtA=="
  },
  {
    "href": "assets/fonts/roboto-medium.ttf",
    "size": 19752,
    "integrity": "sha256-ixlNLdqTt3u2vlvLqSYmMo/tc1pxOwOHujoBNMKD+aQ= sha384-J4IAHHkhib51VnFqvHUQ3u93znUHkkN272BJ7toKwiqzE2UR/VT2R2GDCUD9wAuW sha512-H7SdZuj+3z63BfMdwgdeu9Lyn4HFC2GcoyBHzmK8wi5tREp5D1ZN6yPwYSroIBdERa2WjlC2yCkY4DEY2uX5+g=="
  },
  {
    "href": "assets/fonts/roboto-medium.woff",
    "size": 13248,
    "integrity": "sha256-oIm8Bb68pCpKmYVEb2FMGAF3FxLiWVsfvCsllPVp3I4= sha384-kJO54mSY5Y9aHv1gPUhCK8n9ii5yzJTYHJyJAL6aNDwhq8Ei/GgOo8MaIr+o6gHP sha512-lIJ12jqLQ8MIc76gta48UhCoeqrv7+OxN9Mzg+XJTq+k/dALzTjyKjJbrUTVK3aWEBY0UNqldibnJ+mYEmZNWg=="
  },
  {
    "href": "assets/fonts/roboto-medium.woff2",
    "size": 10192,
    "integrity": "sha256-ouVf1b+k7P9cvqnXVEAdE0+40/qI4M//YdwXdB2SgoE= sha384-OVSinseQEyZVfaMraMlYOHEUu+kDOJ6L2gMcYq+14iRBk82CjLGlfJ7Wg9hHgqrt sha512-WbGk5ao69fgsru21yCSEOxI5Oj6vESN/rPKC/eQ6HocfRI8izxMkbA740P0dc2vI8yzUVr0vuQZ7JSoDT8+Zhw=="
  },
  {
    "href": "assets/fonts/roboto-regular.ttf",
    "size": 19876,
    "integrity": "sha256-bnvOYZy4bjW024Pi8uOz4SY8VJh/7CV0Amac7IP7GT0= sha384-gI6K1LekbHgFLx/KDCzbXofx/cV5scrBQse/l6Dk/Vd/1fEyHC0Ta2CoXQknL2J1 sha512-q7/HuurKEVciOjhNQvPJ6iReAup1bvPCJZk4crSpbXpASF66DTZ68/Vc93DwSOU+8nCmGNWhHJ6n1LjXOEI8+Q=="
  },
  {
    "href": "assets/fonts/roboto-regular.woff",
    "size": 13308,
    "integrity": "sha256-rp/vNZDjcpGEIqYS3PmVZdDHynFCD1bdQ0qedZgI1rg= sha384-RFg/0Lf6MUQVk1XamnvCS+ogc+7HSy+0KY3xmLHXeKoGTOG0cEt8gD0b2/50Q8CC sha512-l9mVMjmW7JeKyWWIrw8eCYeh5rd+X7LG+tiYBcA6paPeUTIlkwZ/VyH4cc+kSixYsXEBTVzaRtGkaexkamcDOA=="
  },
  {
    "href": "assets/fonts/roboto-regular.woff2",
    "size": 10196,
    "integrity": "sha256-Me2rktSt4perkm0j7SZm0cXyQmdd58DBoLtEcCSsVU0= sha384-22DfHkqqF7MkF8wGbP/I/x8TUZGBSP4+qgUOrZ7ncLoqZHnO5yYqhU7I0Q6HPhB8 sha512-BxfvPofmp42FPs/sWmNegeLPKF/HSiBQjnEb2MgLg+iVfWTLCrzQGc8XIUF4IjvT65Ny3PX9Azpo65IabItplQ=="
  },
  {
    "href": "assets/fonts/roboto.scss",
    "size": 1458,
    "integrity": "sha256-UBvbGTbplF5f4KDXxnAW+kAiyeMyV70VfK5eF+6UPHI= sha384-Jdz3YY+FkAv6jsjJzEpkA1LHfTO9fH/gJ5vVis26sv+CXwUzn3sImGwUlhyWAE/T sha512-sBsBfjrFlqVToX0EdYHPq41t/+PtEjuDfMvWcPPLqnQAIj21IKSYNgLskDCKaCPyH4cqYG6DQeI39jalcUPWOw=="
  },
  {
    "href": "assets/icon/favicon.ico",
    "size": 1981,
    "integrity": "sha256-+x8fiqZdbgqm1EkVpXwwNBLYGa/zMgy75O0ph1XQ7wg= sha384-3+RjcHhWOVob9LbhxSKWF0fP+hMYiLp3/EVennYXteEvhyWRz41Z8lVyidH9e2xg sha512-rV/kO7ylEazkf9lvjwwTmPXt0leNIEpGLWbBDe4PGyMUf+LlJ1BRugqAT2NiclthG6TiNjPwnB14N/kCvUbYnA=="
  },
  {
    "href": "assets/imgs/Index_background.png",
    "size": 10327,
    "integrity": "sha256-RLgIZcIRv17gEVe6ate0hGuG3B7l720724hFXOuhxoA= sha384-9rY7biqZgtvoPrG9XSpJHrv0zIIajYE2OIMA03HXHCad+/PPcI/aoP4DDNZ9ZdnC sha512-KXzT1oO0bxUPpWa5WR5s4dXT7Jz+ZyQZB6uTb0dd9EGWLBcJU2K4qTcXbu2OFuf1nAzRh1+aV8wswzGCM68Tpg=="
  },
  {
    "href": "assets/imgs/New Project.png",
    "size": 5882,
    "integrity": "sha256-hY65ZntvtBb4Ej6CERxCzq2mL+ExytQYldlbRHfojjE= sha384-HN/N9Wlt4ftnR2LZXu6wwUWZO0cj5aHkRJyjkSn4fl7mFGxVG4UmAcUh/nzvm4Ir sha512-U857lH8jqG1x3UDiZFzJvWGt8FTKd0/uO5mEgm0DmT5O0ivlcMhKUXSbLhdhLDdMBLEzYXDQT5/ckobdYq+yoQ=="
  },
  {
    "href": "assets/imgs/Sterlite_Industries_India_logo.svg.png",
    "size": 182920,
    "integrity": "sha256-VGqcisXK7rdNYSvj7c6X7PFp79Xh2NJvnsIrFsYlX6E= sha384-1M852ZSwPMJVGJM56Lx2p0hV8gYB0Lp0XPqA4RG+lF4A9sTtxZZoQ75RHVKK6Qfk sha512-xFQLE3q072oSlTmsq6z/qgVMmoE/O0JLhwmca/HUP+00gekIXddBsyXK4af0+flEC8LVYcKJ5Zi/DR/shuNhZQ=="
  },
  {
    "href": "assets/imgs/approve.png",
    "size": 6630,
    "integrity": "sha256-QnByAXLGoZfweVUQoSHyHXe3F2lUz7hdq7e5NDCR1yA= sha384-4u7y3UmWECi7dhp5dYDYtyJEbJIOo80zbItueURqWYUuZXLefPlGAKy26Mzz/VoV sha512-8GX4RSNIRZcd5S1u8CZ+ufBnoai6G/oz5ZtFNFOp1PhV4xYC8xTUn2NLf1+1ogC7eOcYqbIZ0vHkODk0igclDg=="
  },
  {
    "href": "assets/imgs/approve1.png",
    "size": 11689,
    "integrity": "sha256-QCooBsoCMmtBGAWEk7CdXFQFrV/Q+WK7W8/z9xOzzxE= sha384-eEThTpRO0GbQlPTtsjp75NKKZAK+XOQXpdjL3miXkTChJDIY4ZvLOryQUd/y3dYv sha512-Tho04EHxf8DMoASpLUplUpViZqR6z85ZmEYFJuAuw1sVPRHWwdF1TXGVEWvjTGyn2uiJI8CS7HHqJEda7g4SEQ=="
  },
  {
    "href": "assets/imgs/approve3.png",
    "size": 10655,
    "integrity": "sha256-mc74NwYSY06/xStOM1Zet8idXCBjpYDzy+mr6sIMWbg= sha384-4rSeIjJ1NcOsdeljYA3b/5oIJC5sQ+Jw3y8ielJagQcse8tY2LcHmc1v6NmjPtoP sha512-VOP8Dn6GPGdzdMFKpVgtuAmuLtk9AVVXTa9klEjQG7Rw/nKICLZtk5GZAhMGHvbUBhS0V7NBVYyi7hSCO3nzaw=="
  },
  {
    "href": "assets/imgs/approve_1.png",
    "size": 10989,
    "integrity": "sha256-wziMl9Cxv9lL2hW7mqDSpy5dxmsH+XfS1RYK4Mk8jYI= sha384-ky6mTiMXEAmWGNj3xQ8kbcoW5NnHSqEfcHtN2aS8TMveQb6+OAyms9xv7ebGkYS4 sha512-CGwBxX9bl5a5O4YHdmfoh+sGQN2TfSvVgZSQNf89SADJAlCo+jFvLFJB73LR0TH7FUqmE5V9p+5fMlUWitidxw=="
  },
  {
    "href": "assets/imgs/icon.png",
    "size": 81667,
    "integrity": "sha256-+TsDhYCqtt7byT2N0oKW/BbFURu++5R5O8qZuCrVhB4= sha384-T+tK85FmgOPoknz+nhMwYfghlabSA9Y4jsfFp6REX/Ml4F3ZlnNNrpLYRxvuHn9y sha512-5HULaD2lUjlHcanZy8bUf0AUY6r1iuEJsODgQf6lEqAOiuqwC/l+yNHUl+ticyAHMekOdw2aKhuE5NTxUsjD6w=="
  },
  {
    "href": "assets/imgs/icon_old.png",
    "size": 185136,
    "integrity": "sha256-/ke4G869b99ReuimDZF27h4AM3rDppR6rdkQx/TBCYo= sha384-LdphGIJjb7oULdmuBw6jrW1evezRrM8DGfHF5OTsBURJPEaiJlerxBd8eYTkH/rG sha512-KtUiV5BVdjX8XyuMOjGaG43E4RUALIGAilCZGHDWnaZdpwk+rzTu6H0yoLzsQb5Q8qor/CBhbGYyd2BCV0+n7A=="
  },
  {
    "href": "assets/imgs/logo-blue.png",
    "size": 4094,
    "integrity": "sha256-ssONTsiGPpR8vm9VwFfEREsvj17rkRFOKVucxIuVpio= sha384-Q43MYiNOs7KXFpCcR6o+GEWBCvWLrxrxiyly8k84zQDkC1cAlOLM2XOI4G5hopML sha512-+T9OfHMcSoY32khFS3zgP5OpUoL4oY9jAEowTGTv5PfzMF5hKHFCTlOLJBh/n3S2iQWqP/ZWJtdq0YEYOea9xw=="
  },
  {
    "href": "assets/imgs/logo.png",
    "size": 39757,
    "integrity": "sha256-60arwwLfbxwre4/2RjnBMVIvmFPw+1D3WdERFUKqUJg= sha384-P7acjlSceFEZJXUqPhzNGq8c/nUutvm5XBPnCg1LnK2oK7YqDv15n1YGRwsaRviL sha512-1f944LjgrvhR0mber8cwKvCVJMaUYdPVGv/JkXChucgl5ARKxiTqN5M+DvXKUHJUOUVmX2ieQTVHepTEHC6rzQ=="
  },
  {
    "href": "assets/imgs/reject.png",
    "size": 4225,
    "integrity": "sha256-w+bOxT8AyiksltLbU3vWInjnreDYp/rlbcwSQ5s1g2c= sha384-iAQd2fjKhgSPs6mp83Ap8Lite8N6vPIvdtppPpB3yrzH0QeYlj0SOVCT55XtryOe sha512-yVBhUgjUa3tF+UXiraSsMEJpD0GE5s2BKB+Cvves5xq1Sxha9nFa+FB4nCa2Xq6sSj1mJ/xIrHHXvbjYIRHTzg=="
  },
  {
    "href": "assets/imgs/reject3.png",
    "size": 8753,
    "integrity": "sha256-tbioIlwVOBb+uJHJPIOie7i7zq9nyhwrIci/5e6qJ/E= sha384-JfB9QP7pSE2l3djXn9RSif3JkRhI9NyzeucvPMKQTFfKKk4oQZW7wbOQJZKp7APY sha512-hsNnD7O3J+surIQDXgVp5d941yc1qsf5ZYcy5fKF/IiTpYjcRnTwCja9sBagHeAOuhnFvSpw9AKBo2gh5KiYnA=="
  },
  {
    "href": "assets/imgs/reject_1.png",
    "size": 5771,
    "integrity": "sha256-SU5Lx9muCbHs9wEBdn9HwIQ3i7doKNSJxlAnsivjAgA= sha384-0xc9Vr65wNFRKP+BgLkL+CBpQATBmjCS3lX4aSaU3RAtCqqtFDepAMrMigZzdDWv sha512-GJTu3cgFB3b7TwaBZkAxyIYsHHJwdGJY8WOngaz2Dc2aRqcLh1it30tjYXLiUVbZe87TSBs3fyxF+DuyFHaC6g=="
  },
  {
    "href": "assets/imgs/right-image-png-4.png",
    "size": 25733,
    "integrity": "sha256-6FIBv8KCf0QsGHvEpnF7O81ZFMYK7h4INyZkqhqvf9o= sha384-EW3HUdc6wAkucJ7B2wedVCNXBT9aQTNB3rzSO9MQ2+Wx5ozzrRC9Ijol5ukc/IDl sha512-zsjDsY9QlYs4UNK2H9d7h/dxYbPUwonf41vWDpvaFTBwecNK+gBK2qAcO5CaoeWaG8mHMyO5hr4ZWnurvaiikw=="
  },
  {
    "href": "assets/imgs/sterlogo.png",
    "size": 4029,
    "integrity": "sha256-z/CJJ2csNNNH+kO84vhDyfWn4VNwgTnpRxVvwg/sFWU= sha384-MC/SuI1Y/LC4dg7SGlRY44KnZy5HsQWMadr9ZkzaAqSAkHN+ddkz4aeeX9RqVejO sha512-nPeRAX+kYn8PexosueQvlsiRqbgX664GfT34W6m2mjTicODUt7dXhonoTM2EecJtRPXdb6aSal6BC0Pj1VgHjw=="
  },
  {
    "href": "assets/js/soapclient.js",
    "size": 14768,
    "integrity": "sha256-yAsUXPyqvS+4aMI/+lZIJm1+FQt/wu3iZJLUYOSqhHM= sha384-pP7xRkaU2AHZaexCDMUIkWUUL3DzBOVniHzPWCZuDeUu8MKudM5lF/WI1+uXBzq6 sha512-4pTfItNs86ejfprMgKoJUdTlMhfED0eh2ftm/5/PA6mCr3BdbiHEmRyAVhbxmj1zVYZ+S87Pp6mbft79YV1h7w=="
  },
  {
    "href": "assets/fonts/gotham/GothamPro-Medium.eot",
    "size": 40762,
    "integrity": "sha256-ECmem63bZuU+DcYhsWZG/7GEHlsi6v8EkhcuPb+1FQY= sha384-iTHofWyvgZyLuZVumP+g0buen44Td8fIW8yU5HksJ34P+NPLVGt6SvH+QCYb+s3M sha512-uwMRj5/ad0Ml9g0k+iQfc3Rp4XCUF9VbY1mSeYtMW58I/AE0KtLpnlqDKG7YGXzx0XtENyP8sK7e3RKUaxP4VA=="
  },
  {
    "href": "assets/fonts/gotham/GothamPro-Medium.svg",
    "size": 173283,
    "integrity": "sha256-zr+rAK6kYjxGJRIfG0JHya8Zzyje6n5XL3zJk6fVec0= sha384-5Qih7NgZjAdJUzMMMw8nv9ZywrdRS+A2iFzt4/cSIMzkUkjGGL5ZgBo6RtdyP5eL sha512-jhuRDud+OWUbulORpaaPmNenS1NcqALE2950lE0cUGN0qlCDggZ4LMuQzgQ9/GEuCssZv7Eu4AuaN9X/inn0+w=="
  },
  {
    "href": "assets/fonts/gotham/GothamPro-Medium.ttf",
    "size": 40552,
    "integrity": "sha256-oItqgXxKDo86lCBuP0KpEjAxjkI15JDCxgW0E4JVZUE= sha384-g/+wSYYTX0UW+4S/1Luac1rVs1bEl45mXJmXkARh2CFINT4Bu8/JgDBIyWcp8z2z sha512-UD2R76qgxnLuvjn1+CeX5f3GGYnN6dqxeWAawHIVH+NYFJ2KVF2/NJ8XdZPgxjW3LmvX0AdB8XNI2bz7J7Ax0A=="
  },
  {
    "href": "assets/fonts/gotham/GothamPro-Medium.woff",
    "size": 23444,
    "integrity": "sha256-Oz5EIlyr0q5CcO7zdCFAA9iZ2UpgPaaIovI6jQTi1es= sha384-u8l+Iogg+xWBRzXXLlthkcM4YIs/dhXY0nyADXdhJ+dZDmaG0tSFWq1e7RIE6LN0 sha512-DYvDsePIIVvae1MXpzphReeML7KZ3vaVeWQR4OKQav5NFZOlz7NdP5Bap6Yj1UVVv4x77s/FsnOcl5d33+79pg=="
  },
  {
    "href": "assets/fonts/gotham/GothamPro-Medium.woff2",
    "size": 14980,
    "integrity": "sha256-hin3hHTBhPs3e9wlDPMW+eOhlhw+CLjyT2E+l0nEeqM= sha384-Ikn1KfhYjcIAJ4VF6i96RD77f3pDRwvCIMqyqjN01KM19UTWw+ZOBcSksQ1U8/WL sha512-3CDFAP6/Ah6sMLq6i/5GkushxADHiY24ADJmfyVoU6oss2x8O0DTxMiQr59AAA7OfVD0KK1uI3LR4/PNfQ4fsw=="
  }
]